[{
    "id":"1",
    "menu":"Produk",
    "checked":"",
    "icon":"la la-tags",
    "link":"/menu/produk"
},
{
    "id":"2",
    "menu":"Penjualan",
    "checked":"",
    "icon":"la la-cart-plus",
    "link":"/menu/penjualan"
},
{
    "id":"3",
    "menu":"Pendaftaran Karyawan",
    "checked":"",
    "icon":"la la-user-plus",
    "link":"/menu/staf"
},
{
    "id":"4",
    "menu":"Laporan",
    "checked":"",
    "icon":"la la-bar-chart",
    "link":"/menu/laporan"
},
{
    "id":"5",
    "menu":"Riwayat Penjualan",
    "checked":"",
    "icon":"la la-history",
    "link":"/menu/riwayat"
}]